{
  // Database configs
  "DatabaseSettings": {
    "host": "localhost",
    "user": "root",
    "database": "template_testing",
    "connectionLimit":50
  },
  "AWS_SETTINGS":{
    "accessId":"AKIAJA2GZXI6NQOIXMUA",
    "secretKey":"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",
    "bucketName":"internsclabs",
    "acl1":"public-read"
  },
  "Email_Settings":{
    "emailTo":"kuldeep@clicklabs.co",
    "emailFrom":"kuldeep@clicklabs.co",
    "password":"aaryan55396"
  },
  "PORT":8002
}